{
    "KPlugin": {
        "Authors": [
            {
                "Email": "sebas@kde.org",
                "Name": "Sebastian Kügler",
                "Name[az]": "Sebastian Kügler",
                "Name[bg]": "Sebastian Kügler",
                "Name[ca@valencia]": "Sebastian Kügler",
                "Name[ca]": "Sebastian Kügler",
                "Name[cs]": "Sebastian Kügler",
                "Name[en_GB]": "Sebastian Kügler",
                "Name[es]": "Sebastian Kügler",
                "Name[eu]": "Sebastian Kügler",
                "Name[fi]": "Sebastian Kügler",
                "Name[fr]": "Sebastian Kügler",
                "Name[ia]": "Sebastian Kügler",
                "Name[id]": "Sebastian Kügler",
                "Name[it]": "Sebastian Kügler",
                "Name[ka]": "Sebastian Kügler",
                "Name[ko]": "Sebastian Kügler",
                "Name[nl]": "Sebastian Kügler",
                "Name[nn]": "Sebastian Kügler",
                "Name[pl]": "Sebastian Kügler",
                "Name[pt]": "Sebastian Kügler",
                "Name[pt_BR]": "Sebastian Kügler",
                "Name[ru]": "Sebastian Kügler",
                "Name[sl]": "Sebastian Kügler",
                "Name[sv]": "Sebastian Kügler",
                "Name[tr]": "Sebastian Kügler",
                "Name[uk]": "Sebastian Kügler",
                "Name[vi]": "Sebastian Kügler",
                "Name[x-test]": "xxSebastian Küglerxx",
                "Name[zh_CN]": "Sebastian Kügler"
            }
        ],
        "Category": "",
        "Icon": "java",
        "Id": "org.kde.autumn",
        "License": "GPLv2+",
        "Name": "Autumn",
        "Name[az]": "Payız",
        "Name[bg]": "Autumn",
        "Name[ca@valencia]": "Tardor",
        "Name[ca]": "Tardor",
        "Name[cs]": "Podzim",
        "Name[en_GB]": "Autumn",
        "Name[es]": "Otoño",
        "Name[eu]": "Udazkena",
        "Name[fi]": "Syksy",
        "Name[fr]": "Automne",
        "Name[ia]": "Autumno",
        "Name[id]": "Autumn",
        "Name[it]": "Autunno",
        "Name[ka]": "შემოდგომა",
        "Name[ko]": "가을",
        "Name[nl]": "Herfst",
        "Name[nn]": "Haust",
        "Name[pl]": "Jesień",
        "Name[pt]": "Outono",
        "Name[pt_BR]": "Outono",
        "Name[ru]": "Осень",
        "Name[sl]": "Jesen",
        "Name[sv]": "Höst",
        "Name[tr]": "Güz",
        "Name[uk]": "Осінь",
        "Name[vi]": "Mùa thu",
        "Name[x-test]": "xxAutumnxx",
        "Name[zh_CN]": "Autumn 秋色",
        "ServiceTypes": [
            "Plasma/Wallpaper"
        ],
        "Version": "",
        "Website": ""
    },
    "Keywords": "",
    "X-KDE-ParentApp": "",
    "X-Plasma-MainScript": "ui/main.qml"
}
